{"failedCount":0,"prefixedPath":"classpath:test\/FirstTest.feature","packageQualifiedName":"test.FirstTest","loopIndex":-1,"relativePath":"test\/FirstTest.feature","scenarioResults":[{"sectionIndex":0,"stepResults":[{"result":{"nanos":58089900,"millis":58.0899,"status":"passed"},"step":{"line":4,"prefix":"Given","index":0,"text":"url 'https:\/\/reqres.in\/api\/users?page=2'"}},{"result":{"nanos":497064200,"millis":497.0642,"status":"passed"},"step":{"line":5,"prefix":"When","index":1,"text":"method GET"},"stepLog":"23:39:13.891 request:\n1 > GET https:\/\/reqres.in\/api\/users?page=2\n1 > Host: reqres.in\n1 > Connection: Keep-Alive\n1 > User-Agent: Apache-HttpClient\/4.5.13 (Java\/17.0.4)\n1 > Accept-Encoding: gzip,deflate\n\n\n23:39:14.187 response time in milliseconds: 295\n1 < 200\n1 < Date: Fri, 16 Sep 2022 18:09:14 GMT\n1 < Content-Type: application\/json; charset=utf-8\n1 < Transfer-Encoding: chunked\n1 < Connection: keep-alive\n1 < X-Powered-By: Express\n1 < Access-Control-Allow-Origin: *\n1 < Etag: W\/\"406-ut0vzoCuidvyMf8arZpMpJ6ZRDw\"\n1 < Via: 1.1 vegur\n1 < Cache-Control: max-age=14400\n1 < CF-Cache-Status: HIT\n1 < Age: 3907\n1 < Report-To: {\"endpoints\":[{\"url\":\"https:\\\/\\\/a.nel.cloudflare.com\\\/report\\\/v3?s=YgKC5D%2F0lIGRrJ%2B1dVWDWBd4XZYvvudmTBD9GGLUTjdLgtLRszZ4Myj%2FmjOZILocdot8pcjHlaN7XAxBwf5DqKZvQNW1Mc8bBxnHKGgkJr3qHRehE2vs6rj6Ig%3D%3D\"}],\"group\":\"cf-nel\",\"max_age\":604800}\n1 < NEL: {\"success_fraction\":0,\"report_to\":\"cf-nel\",\"max_age\":604800}\n1 < Vary: Accept-Encoding\n1 < Server: cloudflare\n1 < CF-RAY: 74bb8d503ad684a7-BOM\n{\"page\":2,\"per_page\":6,\"total\":12,\"total_pages\":2,\"data\":[{\"id\":7,\"email\":\"michael.lawson@reqres.in\",\"first_name\":\"Michael\",\"last_name\":\"Lawson\",\"avatar\":\"https:\/\/reqres.in\/img\/faces\/7-image.jpg\"},{\"id\":8,\"email\":\"lindsay.ferguson@reqres.in\",\"first_name\":\"Lindsay\",\"last_name\":\"Ferguson\",\"avatar\":\"https:\/\/reqres.in\/img\/faces\/8-image.jpg\"},{\"id\":9,\"email\":\"tobias.funke@reqres.in\",\"first_name\":\"Tobias\",\"last_name\":\"Funke\",\"avatar\":\"https:\/\/reqres.in\/img\/faces\/9-image.jpg\"},{\"id\":10,\"email\":\"byron.fields@reqres.in\",\"first_name\":\"Byron\",\"last_name\":\"Fields\",\"avatar\":\"https:\/\/reqres.in\/img\/faces\/10-image.jpg\"},{\"id\":11,\"email\":\"george.edwards@reqres.in\",\"first_name\":\"George\",\"last_name\":\"Edwards\",\"avatar\":\"https:\/\/reqres.in\/img\/faces\/11-image.jpg\"},{\"id\":12,\"email\":\"rachel.howell@reqres.in\",\"first_name\":\"Rachel\",\"last_name\":\"Howell\",\"avatar\":\"https:\/\/reqres.in\/img\/faces\/12-image.jpg\"}],\"support\":{\"url\":\"https:\/\/reqres.in\/#support-heading\",\"text\":\"To keep ReqRes free, contributions towards server costs are appreciated!\"}}\n"},{"result":{"nanos":20000,"millis":0.02,"status":"passed"},"step":{"line":6,"prefix":"Then","index":2,"text":"status 200"}}],"executorName":"main","line":3,"name":"First Simple API Test","description":"","durationMillis":555.1741,"startTime":1663351753644,"failed":false,"refId":"[1:3]","endTime":1663351754210,"exampleIndex":-1}],"callDepth":0,"name":"Rest API Test","description":"","resultDate":"2022-09-16 11:39:14 pm","durationMillis":555.1741,"passedCount":1}